R4Med 2024 workshop - R for Medical Research
…
# A tibble: 3 × 2
  id     mean
  <chr> <dbl>
1 id01      3
2 id02      5
3 id03      7

Example

medicaldata::strep_tb |>
  select(patient_id, arm, gender, dose_strep_g, rad_num)

# A tibble: 107 × 5
   patient_id arm     gender dose_strep_g rad_num
   <chr>      <fct>   <fct>         <dbl>   <dbl>
 1 0001       Control M                 0       6
 2 0002       Control F                 0       5
 3 0003       Control F                 0       5
 4 0004       Control M                 0       5
 5 0005       Control F                 0       5
 6 0006       Control M                 0       6
 7 0007       Control F                 0       5
 8 0008       Control M                 0       5
 9 0009       Control F                 0       5
10 0010       Control M                 0       5
# ℹ 97 more rows
…
